info face="Mermaid" size=-32 bold=0 italic=0 charset="" unicode=1 stretchH=100 smooth=0 aa=1 padding=0,0,0,0 spacing=0,0 outline=0
common lineHeight=32 base=24 scaleW=256 scaleH=128 pages=1 packed=0 alphaChnl=0 redChnl=4 greenChnl=4 blueChnl=4
page id=0 file="0xjsmzsGyWg257QRSYAQbDQK.ttf_0.png"
chars count=95
char id=32   x=0     y=0     width=0     height=0     xoffset=0     yoffset=0     xadvance=6     page=0  chnl=15
char id=33   x=224   y=69    width=5     height=22    xoffset=2     yoffset=2     xadvance=9     page=0  chnl=15
char id=34   x=66    y=119   width=10    height=9     xoffset=2     yoffset=2     xadvance=14    page=0  chnl=15
char id=35   x=179   y=60    width=15    height=16    xoffset=0     yoffset=8     xadvance=15    page=0  chnl=15
char id=36   x=173   y=38    width=12    height=22    xoffset=0     yoffset=5     xadvance=12    page=0  chnl=15
char id=37   x=148   y=0     width=17    height=16    xoffset=1     yoffset=8     xadvance=19    page=0  chnl=15
char id=38   x=141   y=110   width=18    height=18    xoffset=2     yoffset=6     xadvance=22    page=0  chnl=15
char id=39   x=76    y=119   width=5     height=9     xoffset=1     yoffset=2     xadvance=6     page=0  chnl=15
char id=40   x=222   y=92    width=7     height=30    xoffset=2     yoffset=0     xadvance=10    page=0  chnl=15
char id=41   x=245   y=11    width=7     height=30    xoffset=1     yoffset=0     xadvance=10    page=0  chnl=15
char id=42   x=243   y=42    width=10    height=10    xoffset=0     yoffset=2     xadvance=10    page=0  chnl=15
char id=43   x=165   y=0     width=17    height=16    xoffset=-1    yoffset=9     xadvance=15    page=0  chnl=15
char id=44   x=81    y=119   width=5     height=9     xoffset=2     yoffset=20    xadvance=8     page=0  chnl=15
char id=45   x=23    y=72    width=11    height=4     xoffset=2     yoffset=15    xadvance=15    page=0  chnl=15
char id=46   x=14    y=123   width=5     height=5     xoffset=2     yoffset=19    xadvance=8     page=0  chnl=15
char id=47   x=218   y=30    width=9     height=22    xoffset=1     yoffset=2     xadvance=10    page=0  chnl=15
char id=48   x=175   y=16    width=16    height=16    xoffset=1     yoffset=8     xadvance=18    page=0  chnl=15
char id=49   x=222   y=52    width=11    height=17    xoffset=4     yoffset=7     xadvance=18    page=0  chnl=15
char id=50   x=191   y=15    width=15    height=16    xoffset=0     yoffset=8     xadvance=16    page=0  chnl=15
char id=51   x=185   y=32    width=13    height=23    xoffset=2     yoffset=8     xadvance=18    page=0  chnl=15
char id=52   x=110   y=66    width=18    height=23    xoffset=-1    yoffset=8     xadvance=17    page=0  chnl=15
char id=53   x=180   y=76    width=13    height=23    xoffset=2     yoffset=6     xadvance=17    page=0  chnl=15
char id=54   x=182   y=99    width=13    height=23    xoffset=3     yoffset=1     xadvance=18    page=0  chnl=15
char id=55   x=120   y=89    width=18    height=22    xoffset=0     yoffset=8     xadvance=18    page=0  chnl=15
char id=56   x=159   y=38    width=14    height=22    xoffset=2     yoffset=2     xadvance=18    page=0  chnl=15
char id=57   x=193   y=76    width=13    height=23    xoffset=2     yoffset=8     xadvance=18    page=0  chnl=15
char id=58   x=233   y=44    width=5     height=15    xoffset=2     yoffset=9     xadvance=8     page=0  chnl=15
char id=59   x=238   y=29    width=5     height=20    xoffset=2     yoffset=9     xadvance=8     page=0  chnl=15
char id=60   x=227   y=30    width=11    height=14    xoffset=0     yoffset=9     xadvance=12    page=0  chnl=15
char id=61   x=21    y=120   width=15    height=7     xoffset=0     yoffset=13    xadvance=15    page=0  chnl=15
char id=62   x=234   y=15    width=11    height=14    xoffset=1     yoffset=9     xadvance=12    page=0  chnl=15
char id=63   x=162   y=16    width=13    height=22    xoffset=-1    yoffset=2     xadvance=12    page=0  chnl=15
char id=64   x=0     y=23    width=25    height=26    xoffset=1     yoffset=3     xadvance=27    page=0  chnl=15
char id=65   x=23    y=49    width=24    height=23    xoffset=-1    yoffset=1     xadvance=22    page=0  chnl=15
char id=66   x=105   y=44    width=19    height=22    xoffset=0     yoffset=2     xadvance=20    page=0  chnl=15
char id=67   x=76    y=0     width=20    height=22    xoffset=1     yoffset=2     xadvance=20    page=0  chnl=15
char id=68   x=49    y=23    width=22    height=22    xoffset=0     yoffset=2     xadvance=23    page=0  chnl=15
char id=69   x=128   y=66    width=18    height=22    xoffset=0     yoffset=2     xadvance=19    page=0  chnl=15
char id=70   x=128   y=16    width=17    height=22    xoffset=0     yoffset=2     xadvance=17    page=0  chnl=15
char id=71   x=71    y=71    width=20    height=22    xoffset=1     yoffset=2     xadvance=22    page=0  chnl=15
char id=72   x=21    y=98    width=23    height=22    xoffset=0     yoffset=2     xadvance=23    page=0  chnl=15
char id=73   x=171   y=106   width=11    height=22    xoffset=0     yoffset=2     xadvance=11    page=0  chnl=15
char id=74   x=112   y=16    width=16    height=27    xoffset=-4    yoffset=2     xadvance=12    page=0  chnl=15
char id=75   x=85    y=44    width=20    height=22    xoffset=0     yoffset=2     xadvance=19    page=0  chnl=15
char id=76   x=142   y=38    width=17    height=22    xoffset=0     yoffset=2     xadvance=18    page=0  chnl=15
char id=77   x=0     y=76    width=27    height=22    xoffset=0     yoffset=2     xadvance=27    page=0  chnl=15
char id=78   x=32    y=0     width=22    height=23    xoffset=0     yoffset=2     xadvance=22    page=0  chnl=15
char id=79   x=27    y=76    width=23    height=22    xoffset=1     yoffset=2     xadvance=25    page=0  chnl=15
char id=80   x=101   y=89    width=19    height=22    xoffset=0     yoffset=2     xadvance=19    page=0  chnl=15
char id=81   x=0     y=49    width=23    height=27    xoffset=1     yoffset=2     xadvance=25    page=0  chnl=15
char id=82   x=71    y=22    width=21    height=22    xoffset=0     yoffset=2     xadvance=21    page=0  chnl=15
char id=83   x=146   y=60    width=16    height=22    xoffset=1     yoffset=2     xadvance=18    page=0  chnl=15
char id=84   x=92    y=22    width=20    height=22    xoffset=1     yoffset=2     xadvance=21    page=0  chnl=15
char id=85   x=54    y=0     width=22    height=22    xoffset=0     yoffset=2     xadvance=21    page=0  chnl=15
char id=86   x=50    y=71    width=21    height=23    xoffset=-1    yoffset=2     xadvance=18    page=0  chnl=15
char id=87   x=0     y=0     width=32    height=23    xoffset=-1    yoffset=2     xadvance=29    page=0  chnl=15
char id=88   x=44    y=98    width=22    height=22    xoffset=-1    yoffset=2     xadvance=20    page=0  chnl=15
char id=89   x=25    y=23    width=24    height=22    xoffset=-2    yoffset=2     xadvance=20    page=0  chnl=15
char id=90   x=138   y=88    width=18    height=22    xoffset=0     yoffset=2     xadvance=19    page=0  chnl=15
char id=91   x=195   y=99    width=9     height=29    xoffset=3     yoffset=0     xadvance=10    page=0  chnl=15
char id=92   x=215   y=70    width=9     height=22    xoffset=0     yoffset=2     xadvance=10    page=0  chnl=15
char id=93   x=204   y=99    width=9     height=29    xoffset=-2    yoffset=0     xadvance=10    page=0  chnl=15
char id=94   x=242   y=0     width=14    height=11    xoffset=0     yoffset=2     xadvance=14    page=0  chnl=15
char id=95   x=25    y=45    width=24    height=1     xoffset=0     yoffset=23    xadvance=24    page=0  chnl=15
char id=96   x=36    y=120   width=7     height=8     xoffset=1     yoffset=1     xadvance=8     page=0  chnl=15
char id=97   x=194   y=55    width=15    height=15    xoffset=1     yoffset=9     xadvance=16    page=0  chnl=15
char id=98   x=67    y=45    width=18    height=26    xoffset=0     yoffset=-1    xadvance=18    page=0  chnl=15
char id=99   x=206   y=15    width=15    height=15    xoffset=1     yoffset=9     xadvance=15    page=0  chnl=15
char id=100  x=66    y=94    width=18    height=25    xoffset=1     yoffset=-1    xadvance=19    page=0  chnl=15
char id=101  x=215   y=0     width=14    height=15    xoffset=1     yoffset=9     xadvance=15    page=0  chnl=15
char id=102  x=156   y=82    width=14    height=24    xoffset=0     yoffset=0     xadvance=12    page=0  chnl=15
char id=103  x=84    y=93    width=17    height=26    xoffset=0     yoffset=5     xadvance=17    page=0  chnl=15
char id=104  x=47    y=46    width=20    height=25    xoffset=-1    yoffset=-1    xadvance=18    page=0  chnl=15
char id=105  x=198   y=31    width=10    height=23    xoffset=-1    yoffset=1     xadvance=9     page=0  chnl=15
char id=106  x=170   y=76    width=10    height=30    xoffset=-2    yoffset=1     xadvance=10    page=0  chnl=15
char id=107  x=0     y=98    width=21    height=25    xoffset=-1    yoffset=-1    xadvance=18    page=0  chnl=15
char id=108  x=208   y=30    width=10    height=25    xoffset=-1    yoffset=-1    xadvance=9     page=0  chnl=15
char id=109  x=96    y=0     width=27    height=16    xoffset=0     yoffset=8     xadvance=27    page=0  chnl=15
char id=110  x=101   y=111   width=20    height=16    xoffset=-1    yoffset=8     xadvance=18    page=0  chnl=15
char id=111  x=199   y=0     width=16    height=15    xoffset=1     yoffset=9     xadvance=17    page=0  chnl=15
char id=112  x=91    y=66    width=19    height=23    xoffset=-1    yoffset=8     xadvance=18    page=0  chnl=15
char id=113  x=124   y=43    width=18    height=23    xoffset=1     yoffset=8     xadvance=19    page=0  chnl=15
char id=114  x=209   y=55    width=13    height=15    xoffset=0     yoffset=9     xadvance=12    page=0  chnl=15
char id=115  x=221   y=15    width=13    height=15    xoffset=0     yoffset=9     xadvance=13    page=0  chnl=15
char id=116  x=159   y=106   width=12    height=21    xoffset=0     yoffset=3     xadvance=11    page=0  chnl=15
char id=117  x=121   y=111   width=20    height=15    xoffset=-1    yoffset=9     xadvance=19    page=0  chnl=15
char id=118  x=162   y=60    width=17    height=16    xoffset=-1    yoffset=9     xadvance=15    page=0  chnl=15
char id=119  x=123   y=0     width=25    height=16    xoffset=-1    yoffset=9     xadvance=22    page=0  chnl=15
char id=120  x=182   y=0     width=17    height=15    xoffset=0     yoffset=9     xadvance=16    page=0  chnl=15
char id=121  x=145   y=16    width=17    height=22    xoffset=-1    yoffset=9     xadvance=14    page=0  chnl=15
char id=122  x=229   y=0     width=13    height=15    xoffset=0     yoffset=9     xadvance=14    page=0  chnl=15
char id=123  x=206   y=70    width=9     height=29    xoffset=0     yoffset=0     xadvance=8     page=0  chnl=15
char id=124  x=252   y=11    width=2     height=31    xoffset=3     yoffset=0     xadvance=9     page=0  chnl=15
char id=125  x=213   y=99    width=9     height=29    xoffset=-1    yoffset=0     xadvance=8     page=0  chnl=15
char id=126  x=0     y=123   width=14    height=5     xoffset=1     yoffset=13    xadvance=16    page=0  chnl=15
