info face="Embassy BT" size=-32 bold=0 italic=0 charset="" unicode=1 stretchH=100 smooth=0 aa=1 padding=0,0,0,0 spacing=0,0 outline=0
common lineHeight=40 base=31 scaleW=256 scaleH=256 pages=1 packed=0 alphaChnl=0 redChnl=4 greenChnl=4 blueChnl=4
page id=0 file="wlpEIgEgJWKCGaDc4t8gbJNX.ttf_0.png"
chars count=95
char id=32   x=0     y=0     width=0     height=0     xoffset=0     yoffset=0     xadvance=8     page=0  chnl=15
char id=33   x=171   y=103   width=17    height=20    xoffset=2     yoffset=11    xadvance=12    page=0  chnl=15
char id=34   x=248   y=69    width=8     height=9     xoffset=1     yoffset=9     xadvance=10    page=0  chnl=15
char id=35   x=122   y=118   width=21    height=22    xoffset=2     yoffset=9     xadvance=25    page=0  chnl=15
char id=36   x=159   y=46    width=22    height=26    xoffset=0     yoffset=9     xadvance=16    page=0  chnl=15
char id=37   x=148   y=98    width=23    height=21    xoffset=0     yoffset=13    xadvance=19    page=0  chnl=15
char id=38   x=83    y=69    width=18    height=23    xoffset=2     yoffset=8     xadvance=19    page=0  chnl=15
char id=39   x=253   y=46    width=3     height=9     xoffset=1     yoffset=9     xadvance=5     page=0  chnl=15
char id=40   x=158   y=72    width=22    height=26    xoffset=4     yoffset=8     xadvance=14    page=0  chnl=15
char id=41   x=126   y=92    width=22    height=26    xoffset=-4    yoffset=8     xadvance=14    page=0  chnl=15
char id=42   x=245   y=102   width=10    height=9     xoffset=11    yoffset=8     xadvance=17    page=0  chnl=15
char id=43   x=143   y=139   width=20    height=19    xoffset=3     yoffset=12    xadvance=26    page=0  chnl=15
char id=44   x=248   y=86    width=5     height=5     xoffset=-1    yoffset=28    xadvance=8     page=0  chnl=15
char id=45   x=248   y=91    width=6     height=1     xoffset=1     yoffset=26    xadvance=7     page=0  chnl=15
char id=46   x=253   y=55    width=3     height=3     xoffset=1     yoffset=28    xadvance=8     page=0  chnl=15
char id=47   x=83    y=92    width=15    height=26    xoffset=1     yoffset=8     xadvance=9     page=0  chnl=15
char id=48   x=17    y=126   width=17    height=16    xoffset=1     yoffset=15    xadvance=14    page=0  chnl=15
char id=49   x=43    y=92    width=16    height=16    xoffset=0     yoffset=15    xadvance=8     page=0  chnl=15
char id=50   x=36    y=122   width=18    height=16    xoffset=-2    yoffset=15    xadvance=12    page=0  chnl=15
char id=51   x=0     y=137   width=17    height=16    xoffset=0     yoffset=15    xadvance=14    page=0  chnl=15
char id=52   x=59    y=94    width=19    height=16    xoffset=0     yoffset=15    xadvance=14    page=0  chnl=15
char id=53   x=204   y=151   width=19    height=17    xoffset=-1    yoffset=14    xadvance=12    page=0  chnl=15
char id=54   x=19    y=109   width=17    height=17    xoffset=1     yoffset=14    xadvance=13    page=0  chnl=15
char id=55   x=223   y=153   width=19    height=17    xoffset=-1    yoffset=14    xadvance=11    page=0  chnl=15
char id=56   x=73    y=118   width=17    height=16    xoffset=0     yoffset=15    xadvance=13    page=0  chnl=15
char id=57   x=0     y=120   width=17    height=17    xoffset=-1    yoffset=14    xadvance=13    page=0  chnl=15
char id=58   x=248   y=78    width=7     height=8     xoffset=1     yoffset=23    xadvance=9     page=0  chnl=15
char id=59   x=245   y=111   width=9     height=10    xoffset=-1    yoffset=23    xadvance=9     page=0  chnl=15
char id=60   x=24    y=92    width=19    height=17    xoffset=4     yoffset=13    xadvance=27    page=0  chnl=15
char id=61   x=34    y=147   width=19    height=7     xoffset=4     yoffset=18    xadvance=26    page=0  chnl=15
char id=62   x=0     y=103   width=19    height=17    xoffset=4     yoffset=13    xadvance=27    page=0  chnl=15
char id=63   x=242   y=153   width=13    height=17    xoffset=6     yoffset=14    xadvance=17    page=0  chnl=15
char id=64   x=101   y=46    width=27    height=27    xoffset=2     yoffset=8     xadvance=31    page=0  chnl=15
char id=65   x=156   y=0     width=37    height=23    xoffset=0     yoffset=8     xadvance=24    page=0  chnl=15
char id=66   x=128   y=69    width=30    height=23    xoffset=3     yoffset=8     xadvance=31    page=0  chnl=15
char id=67   x=192   y=62    width=27    height=23    xoffset=1     yoffset=8     xadvance=23    page=0  chnl=15
char id=68   x=128   y=46    width=31    height=23    xoffset=1     yoffset=8     xadvance=29    page=0  chnl=15
char id=69   x=98    y=96    width=24    height=23    xoffset=2     yoffset=8     xadvance=20    page=0  chnl=15
char id=70   x=37    y=23    width=36    height=23    xoffset=2     yoffset=8     xadvance=25    page=0  chnl=15
char id=71   x=219   y=69    width=29    height=23    xoffset=0     yoffset=8     xadvance=22    page=0  chnl=15
char id=72   x=118   y=0     width=38    height=23    xoffset=0     yoffset=8     xadvance=24    page=0  chnl=15
char id=73   x=221   y=0     width=35    height=23    xoffset=-1    yoffset=8     xadvance=22    page=0  chnl=15
char id=74   x=0     y=0     width=37    height=32    xoffset=-8    yoffset=8     xadvance=14    page=0  chnl=15
char id=75   x=78    y=0     width=40    height=23    xoffset=-2    yoffset=8     xadvance=25    page=0  chnl=15
char id=76   x=0     y=32    width=36    height=23    xoffset=-4    yoffset=8     xadvance=19    page=0  chnl=15
char id=77   x=221   y=23    width=35    height=23    xoffset=-2    yoffset=8     xadvance=24    page=0  chnl=15
char id=78   x=37    y=0     width=41    height=23    xoffset=-3    yoffset=8     xadvance=24    page=0  chnl=15
char id=79   x=101   y=73    width=25    height=23    xoffset=3     yoffset=8     xadvance=21    page=0  chnl=15
char id=80   x=0     y=55    width=32    height=23    xoffset=1     yoffset=8     xadvance=26    page=0  chnl=15
char id=81   x=217   y=92    width=28    height=23    xoffset=0     yoffset=8     xadvance=23    page=0  chnl=15
char id=82   x=36    y=46    width=33    height=23    xoffset=0     yoffset=8     xadvance=27    page=0  chnl=15
char id=83   x=73    y=23    width=36    height=23    xoffset=-2    yoffset=8     xadvance=20    page=0  chnl=15
char id=84   x=109   y=23    width=36    height=23    xoffset=2     yoffset=8     xadvance=23    page=0  chnl=15
char id=85   x=188   y=85    width=29    height=23    xoffset=4     yoffset=8     xadvance=27    page=0  chnl=15
char id=86   x=32    y=69    width=27    height=23    xoffset=3     yoffset=8     xadvance=18    page=0  chnl=15
char id=87   x=219   y=46    width=34    height=23    xoffset=3     yoffset=8     xadvance=23    page=0  chnl=15
char id=88   x=145   y=23    width=36    height=23    xoffset=2     yoffset=8     xadvance=27    page=0  chnl=15
char id=89   x=69    y=46    width=32    height=23    xoffset=4     yoffset=8     xadvance=25    page=0  chnl=15
char id=90   x=193   y=30    width=24    height=32    xoffset=1     yoffset=8     xadvance=19    page=0  chnl=15
char id=91   x=0     y=78    width=24    height=25    xoffset=1     yoffset=8     xadvance=14    page=0  chnl=15
char id=92   x=180   y=77    width=8     height=26    xoffset=8     yoffset=8     xadvance=16    page=0  chnl=15
char id=93   x=59    y=69    width=24    height=25    xoffset=-2    yoffset=8     xadvance=14    page=0  chnl=15
char id=94   x=34    y=138   width=20    height=9     xoffset=6     yoffset=8     xadvance=32    page=0  chnl=15
char id=95   x=99    y=140   width=16    height=1     xoffset=0     yoffset=37    xadvance=16    page=0  chnl=15
char id=96   x=32    y=55    width=4     height=6     xoffset=10    yoffset=16    xadvance=16    page=0  chnl=15
char id=97   x=17    y=150   width=15    height=8     xoffset=-1    yoffset=23    xadvance=12    page=0  chnl=15
char id=98   x=227   y=115   width=17    height=19    xoffset=0     yoffset=12    xadvance=13    page=0  chnl=15
char id=99   x=244   y=121   width=11    height=8     xoffset=1     yoffset=23    xadvance=10    page=0  chnl=15
char id=100  x=166   y=123   width=22    height=19    xoffset=-1    yoffset=12    xadvance=12    page=0  chnl=15
char id=101  x=244   y=129   width=11    height=8     xoffset=1     yoffset=23    xadvance=10    page=0  chnl=15
char id=102  x=193   y=0     width=28    height=30    xoffset=-7    yoffset=10    xadvance=9     page=0  chnl=15
char id=103  x=163   y=142   width=21    height=17    xoffset=-6    yoffset=23    xadvance=13    page=0  chnl=15
char id=104  x=208   y=115   width=19    height=19    xoffset=-2    yoffset=12    xadvance=13    page=0  chnl=15
char id=105  x=54    y=127   width=13    height=13    xoffset=0     yoffset=18    xadvance=8     page=0  chnl=15
char id=106  x=188   y=108   width=20    height=22    xoffset=-8    yoffset=18    xadvance=8     page=0  chnl=15
char id=107  x=188   y=130   width=18    height=19    xoffset=0     yoffset=12    xadvance=13    page=0  chnl=15
char id=108  x=227   y=134   width=17    height=19    xoffset=0     yoffset=12    xadvance=10    page=0  chnl=15
char id=109  x=90    y=119   width=22    height=8     xoffset=-1    yoffset=23    xadvance=19    page=0  chnl=15
char id=110  x=17    y=142   width=17    height=8     xoffset=-1    yoffset=23    xadvance=14    page=0  chnl=15
char id=111  x=67    y=142   width=14    height=8     xoffset=-1    yoffset=23    xadvance=11    page=0  chnl=15
char id=112  x=143   y=119   width=23    height=20    xoffset=-8    yoffset=20    xadvance=14    page=0  chnl=15
char id=113  x=56    y=110   width=17    height=17    xoffset=-3    yoffset=23    xadvance=12    page=0  chnl=15
char id=114  x=54    y=140   width=13    height=8     xoffset=0     yoffset=23    xadvance=11    page=0  chnl=15
char id=115  x=245   y=92    width=11    height=10    xoffset=0     yoffset=21    xadvance=9     page=0  chnl=15
char id=116  x=43    y=108   width=13    height=14    xoffset=0     yoffset=17    xadvance=9     page=0  chnl=15
char id=117  x=67    y=134   width=17    height=8     xoffset=0     yoffset=23    xadvance=15    page=0  chnl=15
char id=118  x=0     y=153   width=15    height=8     xoffset=0     yoffset=23    xadvance=13    page=0  chnl=15
char id=119  x=90    y=127   width=22    height=8     xoffset=0     yoffset=23    xadvance=20    page=0  chnl=15
char id=120  x=84    y=135   width=15    height=8     xoffset=-2    yoffset=23    xadvance=12    page=0  chnl=15
char id=121  x=206   y=134   width=21    height=17    xoffset=-4    yoffset=23    xadvance=15    page=0  chnl=15
char id=122  x=184   y=149   width=20    height=17    xoffset=-8    yoffset=23    xadvance=10    page=0  chnl=15
char id=123  x=181   y=50    width=11    height=27    xoffset=2     yoffset=8     xadvance=16    page=0  chnl=15
char id=124  x=217   y=30    width=2     height=32    xoffset=6     yoffset=6     xadvance=15    page=0  chnl=15
char id=125  x=181   y=23    width=12    height=27    xoffset=2     yoffset=8     xadvance=16    page=0  chnl=15
char id=126  x=99    y=135   width=21    height=5     xoffset=3     yoffset=19    xadvance=27    page=0  chnl=15
